…
## Problem 1

Loading the data.

``` r
data("instacart")
```

``` r
instacart %>%
  count(aisle) %>%
  arrange(desc(n))
```

    ## # A tibble: 134 x 2
    ##    aisle                              n
    ##    <chr>                          <int>
    ##  1 fresh vegetables              150609
    ##  2 fresh fruits                  150473
    ##  3 packaged vegetables fruits     78493
    ##  4 yogurt                         55240
    ##  5 packaged cheese                41699
    ##  6 water seltzer sparkling water  36617
    ##  7 milk                           32644
    ##  8 chips pretzels                 31269
    ##  9 soy lactosefree                26240
    ## 10 bread                          23635
    ## # … with 124 more rows
…
\#\#Problem 3 Data importation and cleaning/wrangling.

``` r
data("ny_noaa")
```

``` r
ny_noaa %>% 
  slice_sample(n=1000) %>%
  separate(date, into = c("year", "month", "day"), convert = TRUE) %>%
  mutate(tmax = as.numeric(tmax)/10,tmin = as.numeric(tmin)/10)
```

    ## # A tibble: 1,000 x 9
    ##    id           year month   day  prcp  snow  snwd  tmax  tmin
    ##    <chr>       <int> <int> <int> <int> <int> <int> <dbl> <dbl>
    ##  1 USC00308910  2007     2    16     5     5   533 -11.1 -21.7
    ##  2 USC00300379  2006    10    30     0    NA    NA  NA    NA  
    ##  3 USC00308578  1993     1    25   145    51    NA  NA    NA  
    ##  4 USC00303346  1994     6     1    13     0     0  27.8  10.6
    ##  5 USC00302582  2009    10    26     0     0     0  NA    NA  
    ##  6 USW00094740  2003     4     6     0    NA    NA  -2.8 -16.7
    ##  7 USC00308586  2005     2     4     0     0    NA  NA    NA  
    ##  8 USC00304207  1985     4    26     0     0     0  17.2   0.6
    ##  9 USC00305426  1988     7    13     0     0     0  30    17.8
    ## 10 USC00303346  1992     7     8    25     0     0  24.4  10  
    ## # … with 990 more rows
…
